29

5 4
3
r 4 3 w
f 4 2 s
f 0 2 e
8 4

3 5
3
t 2 3 w
f 2 3 s
r 1 1 n
8 3

4 4
3
f 0 2 w
r 3 0 n
h 0 2 w
4 5

4 3
3
t 2 0 n
t 0 2 n
f 3 0 e
9 1

5 3
3
f 0 2 n
f 1 1 w
f 2 0 n
9 2

4 5
3
h 2 3 w
t 1 2 w
f 1 3 e
9 4

3 3
3
t 1 2 e
r 0 0 w
r 0 1 n
1 3

4 3
3
h 2 1 s
h 1 0 e
t 3 1 n
4 2

4 3
3
f 2 1 n
f 2 2 w
t 2 1 e
7 1

3 3
3
h 2 2 e
h 0 0 e
t 2 2 w
5 3

3 4
3
r 1 2 s
r 2 1 w
t 2 0 n
3 3

4 5
3
h 2 2 s
r 3 3 s
f 3 4 w
5 5

3 4
3
f 2 1 n
r 0 1 w
h 0 3 e
9 5

4 4
3
r 2 2 w
t 0 0 n
r 2 3 w
2 1

3 3
3
f 2 2 n
r 0 2 e
f 1 1 e
4 1

3 5
3
h 0 4 w
r 0 3 e
r 0 2 w
5 4

4 4
3
r 2 1 e
t 2 1 w
t 1 1 e
6 2

4 4
3
r 2 1 w
t 1 2 n
r 3 1 s
5 4

3 3
3
f 1 0 n
f 1 2 e
r 0 1 w
3 3

3 5
3
h 0 4 s
f 1 4 w
h 2 2 e
9 2

4 5
3
h 0 3 n
r 3 3 e
f 1 2 e
5 5

4 3
3
t 3 0 e
f 2 1 n
h 0 2 e
3 4

3 5
3
f 0 3 w
h 2 3 n
f 0 4 s
6 4

3 4
3
t 1 2 w
r 0 1 n
h 0 3 n
5 4

5 4
3
t 4 3 w
t 1 1 w
f 0 1 w
2 2

4 3
3
f 2 2 e
r 3 0 w
t 0 2 w
7 1

4 5
3
f 0 0 n
h 3 2 n
r 2 4 e
4 5

5 5
3
r 0 4 s
t 2 3 n
r 3 2 n
4 4

4 5
3
t 0 1 s
r 2 0 n
h 3 3 s
4 2
