23

5 19
14
t 1 16 e
t 4 11 w
r 4 15 w
h 2 2 w
t 1 18 e
f 0 0 e
t 1 16 w
t 3 0 e
h 0 5 w
h 0 9 n
t 2 17 e
r 4 17 e
r 3 12 s
f 3 0 s
99 72

8 16
1
t 3 8 s
25 25

15 11
2
r 2 7 w
h 10 9 e
89 58

9 17
13
h 0 7 n
t 7 12 e
t 6 12 n
h 2 5 n
r 0 12 n
f 0 9 n
t 7 11 n
f 2 8 n
h 2 16 e
f 6 5 e
r 5 13 e
h 8 16 s
r 0 13 s
62 15

19 12
11
f 1 4 e
r 3 2 w
t 3 8 n
f 11 7 e
f 18 0 w
f 11 3 e
r 8 3 n
t 4 5 n
f 2 1 s
h 2 11 e
f 2 9 w
30 56

16 11
1
f 14 8 w
59 72

10 9
8
h 0 2 n
t 2 1 e
r 4 3 w
f 4 7 w
h 4 1 w
h 5 3 e
r 4 0 w
h 0 0 w
95 54

16 11
6
r 6 2 s
t 11 4 e
h 13 1 e
h 6 4 w
t 6 2 e
t 5 0 e
91 31

8 7
9
h 2 1 w
t 1 0 n
h 4 1 s
t 6 2 s
h 1 4 w
t 2 1 e
t 7 2 n
t 7 5 e
h 0 5 e
26 82

16 13
2
r 12 10 s
r 8 8 s
91 68

16 5
13
f 7 4 w
f 8 1 s
f 0 2 n
f 13 2 n
h 14 3 e
t 14 0 w
f 13 2 w
t 5 3 n
f 12 3 s
h 12 3 w
h 4 2 s
r 0 2 s
t 0 2 s
35 98

6 12
6
f 4 10 n
r 5 7 w
t 2 0 e
h 1 2 w
t 3 3 w
f 0 10 e
95 30

9 10
9
t 4 3 w
r 1 5 w
f 5 9 e
h 4 7 w
t 6 4 e
h 2 8 w
f 8 7 e
h 3 1 e
t 0 1 n
47 55

16 11
1
h 13 5 s
51 33

18 6
5
h 0 2 e
t 2 4 w
f 14 4 w
t 17 4 n
f 7 1 n
91 60

20 20
5
h 12 3 s
t 11 11 s
h 6 11 e
h 1 5 n
f 8 18 e
60 92

11 10
12
r 0 5 s
t 1 8 n
h 5 6 w
h 10 6 w
r 7 7 w
h 8 2 e
r 9 6 s
t 6 9 e
t 1 8 e
t 1 9 w
h 6 8 e
h 0 8 e
64 10

11 11
15
h 7 4 e
f 3 7 w
h 0 1 s
r 5 3 s
f 2 10 n
t 0 7 e
r 6 9 w
f 7 10 n
h 2 6 s
r 8 4 e
h 4 8 w
r 8 5 s
h 10 7 e
f 5 4 n
f 7 4 n
92 20

13 13
8
r 1 6 s
f 0 3 w
h 12 1 w
t 1 2 e
f 8 12 e
r 2 0 n
t 0 7 e
t 0 4 n
88 6

5 8
5
h 1 6 s
t 0 7 n
t 3 5 s
t 0 0 n
f 2 1 w
99 50

8 6
14
r 0 4 n
t 1 1 s
h 6 0 e
f 6 5 n
r 2 2 e
h 1 0 n
h 2 1 s
h 0 3 n
f 3 0 s
t 0 0 s
t 5 2 s
r 0 0 w
t 2 2 n
f 6 1 n
99 71

11 5
6
h 7 0 s
t 0 1 n
f 3 1 w
r 2 0 s
h 0 1 s
t 5 3 n
62 31

11 9
14
r 5 3 n
h 9 6 e
h 8 7 s
t 8 1 s
h 4 3 s
f 5 5 w
r 4 0 w
f 10 3 e
t 7 1 e
t 4 1 e
r 0 6 e
t 1 5 w
t 8 1 n
f 7 0 e
49 47
