*** Darwin 8x1 ***
Turn = 0.
  0
0 t
1 .
2 .
3 h
4 h
5 .
6 .
7 f

Turn = 1.
  0
0 t
1 .
2 .
3 h
4 h
5 .
6 .
7 f

Turn = 2.
  0
0 t
1 .
2 .
3 h
4 h
5 .
6 .
7 f

Turn = 3.
  0
0 t
1 .
2 .
3 h
4 h
5 .
6 .
7 f

Turn = 4.
  0
0 t
1 .
2 .
3 h
4 h
5 .
6 .
7 f

Turn = 5.
  0
0 t
1 .
2 .
3 h
4 h
5 .
6 .
7 f

*** Darwin 6x3 ***
Turn = 0.
  012
0 h..
1 ...
2 .h.
3 ...
4 .f.
5 ..h

Turn = 1.
  012
0 h..
1 ...
2 ..h
3 ...
4 .fh
5 ...

*** Darwin 8x4 ***
Turn = 0.
  0123
0 ....
1 ....
2 ..f.
3 ....
4 .h.h
5 .h.h
6 ....
7 ....

Turn = 5.
  0123
0 .h..
1 ....
2 ..f.
3 ....
4 h..h
5 ...h
6 ....
7 ....

Turn = 10.
  0123
0 .h..
1 ....
2 ..f.
3 ....
4 h..h
5 ...h
6 ....
7 ....

Turn = 15.
  0123
0 .h..
1 ....
2 ..f.
3 ....
4 h..h
5 ...h
6 ....
7 ....

Turn = 20.
  0123
0 .h..
1 ....
2 ..f.
3 ....
4 h..h
5 ...h
6 ....
7 ....

Turn = 25.
  0123
0 .h..
1 ....
2 ..f.
3 ....
4 h..h
5 ...h
6 ....
7 ....

*** Darwin 1x1 ***
Turn = 0.
  0
0 h

Turn = 4.
  0
0 h

Turn = 8.
  0
0 h

*** Darwin 8x8 ***
Turn = 0.
  01234567
0 ........
1 ........
2 ........
3 h.......
4 h.......
5 .h......
6 ........
7 ....h...

Turn = 1.
  01234567
0 ........
1 ........
2 ........
3 h.......
4 ........
5 h.......
6 .h......
7 ....h...

Turn = 2.
  01234567
0 ........
1 ........
2 ........
3 ........
4 h.......
5 ........
6 h.......
7 .h..h...

Turn = 3.
  01234567
0 ........
1 ........
2 ........
3 ........
4 ........
5 h.......
6 ........
7 hh..h...

Turn = 4.
  01234567
0 ........
1 ........
2 ........
3 ........
4 ........
5 ........
6 h.......
7 hh..h...

*** Darwin 5x8 ***
Turn = 0.
  01234567
0 ..f.....
1 ........
2 ......f.
3 ..h.....
4 .f...h..

Turn = 2.
  01234567
0 ..f.....
1 ........
2 ......f.
3 ....h...
4 .f...h..

Turn = 4.
  01234567
0 ..f.....
1 ........
2 ......f.
3 ......h.
4 .f...h..

*** Darwin 2x4 ***
Turn = 0.
  0123
0 thrt
1 ..f.

Turn = 3.
  0123
0 t.rr
1 .hf.

Turn = 6.
  0123
0 t.rr
1 .rr.

*** Darwin 2x3 ***
Turn = 0.
  012
0 ..t
1 ...

Turn = 1.
  012
0 ..t
1 ...

Turn = 2.
  012
0 ..t
1 ...

Turn = 3.
  012
0 ..t
1 ...

Turn = 4.
  012
0 ..t
1 ...

Turn = 5.
  012
0 ..t
1 ...

*** Darwin 2x1 ***
Turn = 0.
  0
0 t
1 r

Turn = 1.
  0
0 t
1 r

Turn = 2.
  0
0 r
1 r

Turn = 3.
  0
0 r
1 r

Turn = 4.
  0
0 r
1 r

Turn = 5.
  0
0 r
1 r

*** Darwin 4x4 ***
Turn = 0.
  0123
0 ....
1 ...r
2 .f..
3 ..f.

Turn = 10.
  0123
0 ....
1 ....
2 .f..
3 ..rr

*** Darwin 3x10 ***
Turn = 0.
  0123456789
0 ..........
1 ..........
2 .h.r......

Turn = 10.
  0123456789
0 ..........
1 ..........
2 .h.......r

Turn = 20.
  0123456789
0 ..........
1 ..r.......
2 r.........

Turn = 30.
  0123456789
0 ....r.....
1 .....r....
2 ..........

Turn = 40.
  0123456789
0 .........r
1 ..........
2 ........r.

*** Darwin 1x3 ***
Turn = 0.
  012
0 .f.

Turn = 3.
  012
0 .f.

Turn = 6.
  012
0 .f.

*** Darwin 10x9 ***
Turn = 0.
  012345678
0 .........
1 .........
2 h....r..f
3 .......t.
4 .........
5 .......r.
6 .....h...
7 ...rt...t
8 .........
9 .........

Turn = 2.
  012345678
0 .........
1 .........
2 h......rf
3 .......t.
4 .........
5 ...r....r
6 ...h.....
7 ....t...t
8 .........
9 .........

Turn = 4.
  012345678
0 .........
1 .........
2 h.......r
3 ...r...tt
4 .........
5 .........
6 .h......r
7 ....t...r
8 .........
9 .........

*** Darwin 2x1 ***
Turn = 0.
  0
0 t
1 t

*** Darwin 2x6 ***
Turn = 0.
  012345
0 h.....
1 rtt...

Turn = 49.
  012345
0 .t....
1 ttt...

Turn = 98.
  012345
0 .t....
1 ttt...

Turn = 147.
  012345
0 .t....
1 ttt...

*** Darwin 6x15 ***
Turn = 0.
  012345678901234
0 ...............
1 .......f..r..fr
2 ...t...r.t....h
3 .r.....t......f
4 .............r.
5 .ff.....h......

Turn = 7.
  012345678901234
0 r....r.........
1 .......f..r....
2 .r.......rr...r
3 .......t....r.r
4 ...r...........
5 .frr...........

Turn = 14.
  012345678901234
0 ..r....r.......
1 r...rr....r....
2 r...rr.........
3 r.....r.......r
4 ...............
5 .....r.r....r..

*** Darwin 5x6 ***
Turn = 0.
  012345
0 ......
1 .....f
2 ..r...
3 ...hr.
4 ......

Turn = 37.
  012345
0 .r....
1 ......
2 ......
3 ......
4 rr..r.

Turn = 74.
  012345
0 r.....
1 r.....
2 ......
3 ......
4 .r...r

Turn = 111.
  012345
0 r.....
1 ......
2 r.....
3 ......
4 ..r..r

Turn = 148.
  012345
0 r.r...
1 r.....
2 ......
3 ......
4 r.....

Turn = 185.
  012345
0 r.....
1 ......
2 ......
3 ...r..
4 ....rr

Turn = 222.
  012345
0 .r...r
1 r.....
2 ......
3 ......
4 .....r

Turn = 259.
  012345
0 ......
1 .....r
2 ...r..
3 .....r
4 .r....

Turn = 296.
  012345
0 r.....
1 r..r..
2 .....r
3 ......
4 ......

Turn = 333.
  012345
0 ....rr
1 ......
2 r.....
3 ......
4 ..r...

Turn = 370.
  012345
0 .....r
1 ......
2 .r....
3 .r....
4 .....r

*** Darwin 1x5 ***
Turn = 0.
  01234
0 rh..t

Turn = 148.
  01234
0 r.rr.

Turn = 296.
  01234
0 rrr..

Turn = 444.
  01234
0 ..rrr

Turn = 592.
  01234
0 r.rr.

Turn = 740.
  01234
0 r.r.r

*** Darwin 9x6 ***
Turn = 0.
  012345
0 .h..h.
1 ......
2 ......
3 .t....
4 ......
5 ......
6 ......
7 ......
8 .....r

*** Darwin 7x7 ***
Turn = 0.
  0123456
0 .......
1 f......
2 .......
3 ....r..
4 .......
5 .......
6 .......

Turn = 50.
  0123456
0 .......
1 .......
2 .......
3 .r.....
4 .......
5 .......
6 r......

*** Darwin 6x4 ***
Turn = 0.
  0123
0 ....
1 hr.t
2 ....
3 ....
4 ff.t
5 ....

Turn = 1.
  0123
0 .r..
1 h..t
2 ....
3 ....
4 ff.t
5 ....

Turn = 2.
  0123
0 .r..
1 h..t
2 ....
3 ....
4 ff.t
5 ....

Turn = 3.
  0123
0 ..r.
1 h..t
2 ....
3 ....
4 ff.t
5 ....

Turn = 4.
  0123
0 ...r
1 h..t
2 ....
3 ....
4 ff.t
5 ....

Turn = 5.
  0123
0 ...t
1 h..t
2 ....
3 ....
4 ff.t
5 ....

Turn = 6.
  0123
0 ...t
1 h..t
2 ....
3 ....
4 ff.t
5 ....

Turn = 7.
  0123
0 ...t
1 h..t
2 ....
3 ....
4 ff.t
5 ....

Turn = 8.
  0123
0 ...t
1 h..t
2 ....
3 ....
4 ff.t
5 ....

Turn = 9.
  0123
0 ...t
1 h..t
2 ....
3 ....
4 ff.t
5 ....

Turn = 10.
  0123
0 ...t
1 h..t
2 ....
3 ....
4 ff.t
5 ....

*** Darwin 3x4 ***
Turn = 0.
  0123
0 h...
1 ....
2 ...h

Turn = 1.
  0123
0 .h..
1 ...h
2 ....

Turn = 2.
  0123
0 ..hh
1 ....
2 ....

Turn = 3.
  0123
0 ..hh
1 ....
2 ....
