22

8 1
6
h 0 0 n
f 7 0 s
h 4 0 n
t 0 0 n
h 3 0 e
h 4 0 w
5 1

6 3
4
h 0 0 n
h 5 2 n
h 2 1 e
f 4 1 n
1 1

8 4
5
f 2 2 e
h 5 1 n
h 4 3 s
h 4 1 w
h 5 3 e
29 5

1 1
8
f 0 0 e
t 0 0 w
h 0 0 w
t 0 0 n
f 0 0 w
f 0 0 s
h 0 0 e
h 0 0 e
10 4

8 8
4
h 3 0 s
h 4 0 s
h 5 1 s
h 7 4 s
4 1

5 8
5
f 4 1 e
h 4 5 s
f 2 6 n
h 3 2 e
f 0 2 s
4 2

2 4
5
r 0 2 n
t 0 3 e
t 0 0 s
h 0 1 s
f 1 2 e
8 3

2 3
1
t 0 2 w
5 1

2 1
6
r 1 0 w
t 0 0 n
t 1 0 s
f 1 0 e
f 1 0 n
r 1 0 w
5 1

4 4
3
r 1 3 n
f 2 1 s
f 3 2 s
12 10

3 10
2
r 2 3 e
h 2 1 s
45 10

1 3
1
f 0 1 s
8 3

10 9
9
t 3 7 n
h 6 5 w
r 7 3 n
r 2 5 e
h 2 0 w
t 7 4 w
t 7 8 w
r 5 7 e
f 2 8 n
5 2

2 1
4
t 0 0 e
h 0 0 e
t 1 0 n
t 0 0 n
109 161

2 6
5
r 1 2 e
r 1 0 s
t 1 1 n
h 0 0 e
t 1 2 n
183 49

6 15
15
f 3 14 n
r 3 1 w
r 4 13 e
t 2 3 s
f 5 2 w
r 1 14 s
f 1 7 n
h 5 8 w
r 2 7 w
t 3 7 s
f 1 13 e
r 1 10 n
h 2 14 s
t 2 9 e
f 5 1 e
15 7

5 6
7
r 1 5 e
h 3 3 n
t 1 5 w
f 3 4 n
r 2 2 s
f 1 5 w
r 3 4 s
401 37

1 5
5
h 0 1 e
t 0 4 e
r 0 0 s
r 0 0 e
h 0 1 w
875 148

9 6
4
h 0 1 w
t 3 1 w
h 0 4 w
r 8 5 n
10 132

7 7
2
f 1 0 s
r 3 4 s
98 50

6 4
8
r 1 1 n
t 1 0 n
h 1 0 w
h 1 3 w
t 1 3 n
f 4 0 w
t 4 3 n
f 4 1 w
10 1

3 4
2
h 0 0 e
h 2 3 n
3 1
