25

15 9
5
h 4 5 w
t 13 6 w
f 7 6 n
r 1 1 e
f 10 2 e
15 10

12 8
9
t 7 2 n
h 8 3 e
r 9 5 s
r 8 3 e
f 1 4 n
r 1 5 e
h 11 2 w
t 7 6 s
t 5 3 e
2 1

10 9
9
t 3 7 n
h 6 5 w
r 7 3 n
r 2 5 e
h 2 0 w
t 7 4 w
t 7 8 w
r 5 7 e
f 2 8 n
5 2

7 8
6
h 3 6 e
f 2 5 n
r 3 7 s
r 1 3 n
r 4 7 s
h 5 1 e
13 5

2 7
7
t 0 6 e
t 0 0 e
h 0 4 s
f 1 0 s
r 1 6 e
r 1 1 w
t 1 5 s
4 4

8 3
8
h 2 0 s
f 4 0 e
h 6 0 s
h 4 1 w
f 4 1 w
h 1 0 n
r 5 2 w
f 1 1 e
3 1

13 7
2
f 6 2 w
r 11 4 w
3 2

14 4
4
r 6 0 s
f 1 0 s
h 0 2 e
r 10 3 w
1 1

13 3
4
f 12 1 e
r 11 2 n
h 7 0 w
f 1 0 s
6 3

4 15
9
t 0 10 e
r 1 7 w
r 2 0 e
r 2 11 w
f 0 6 n
h 3 6 n
t 3 12 e
t 0 10 s
f 3 2 s
2 2

4 15
7
r 2 9 s
h 1 10 n
r 2 10 w
f 3 14 e
r 3 7 e
f 3 5 s
t 2 0 e
1 1

4 8
8
t 3 1 s
f 1 3 w
t 2 1 n
h 1 3 w
t 0 3 e
h 2 1 e
t 2 3 w
t 1 6 n
11 9

6 3
4
f 2 0 n
h 4 0 e
h 2 1 w
h 1 0 n
2 2

6 13
6
h 2 11 w
r 4 0 n
t 5 5 n
f 0 1 s
r 3 11 n
f 4 12 n
11 7

3 7
3
f 2 2 n
r 0 6 e
t 1 6 n
10 6

4 6
8
t 1 0 n
f 2 3 n
f 0 1 n
r 3 0 s
r 1 0 e
h 3 4 s
t 0 2 w
t 3 0 s
20 13

11 9
10
t 10 7 e
r 6 0 e
t 8 7 s
t 9 5 s
t 6 4 e
h 2 0 n
r 9 8 e
f 8 6 w
f 6 1 w
r 6 1 n
5 4

6 7
10
r 3 0 e
r 5 5 w
r 2 0 n
r 0 2 s
h 2 0 e
t 2 4 n
f 4 6 s
r 2 4 n
r 1 6 w
f 4 5 w
2 2

10 3
7
r 4 2 e
t 6 2 w
h 0 1 n
f 2 1 w
r 2 0 e
t 0 1 e
h 4 0 s
4 3

6 13
6
r 4 3 w
r 0 4 e
r 5 1 s
h 5 1 s
h 2 2 w
r 0 8 s
7 1

12 4
3
r 10 0 e
f 1 2 e
r 8 0 n
15 1

12 7
6
t 10 1 s
h 2 4 n
r 4 4 n
h 4 0 n
t 2 1 e
r 6 1 s
10 8

15 4
4
f 13 1 s
t 13 2 w
h 8 0 n
f 4 1 n
15 2

6 7
8
h 2 3 e
r 1 4 s
h 3 1 n
r 1 1 w
f 1 0 w
f 1 0 s
r 1 3 s
r 4 6 n
16 13

5 12
1
h 1 2 e
7 6
