27

12 12
3
r 1 2 w
f 2 3 e
h 2 2 s
10 5

6 8
2
h 3 4 e
r 4 3 w
12 6

10 10
3
r 3 5 n
t 4 5 s
h 4 4 w
10 5

4 4
2
f 2 3 n
r 1 2 e
10 5

8 8
4
h 2 4 s
f 3 2 s
t 5 3 w
f 7 4 e
10 5

8 8
6
t 2 2 n
h 3 2 s
r 4 2 w
h 3 4 e
f 5 5 n
t 6 5 s
5 1

5 5
3
f 1 2 n
f 1 3 n
f 2 1 n
20 10

6 6
3
r 1 2 n
r 2 4 e
r 2 5 s
10 5

3 4
4
r 2 1 n
r 2 2 s
r 1 1 e
h 2 0 s
80 40

6 7
2
h 1 2 n
t 2 6 n
252 157

10 6
4
h 3 3 e
t 2 4 n
t 4 5 n
r 5 5 n
25 2

6 5
3
t 2 2 s
r 2 4 e
f 2 3 n
30 15

8 8
2
t 4 0 e
h 3 0 s
10 5

8 8
3
t 1 0 n
r 2 5 w
f 3 3 s
24 10

9 10
4
h 1 2 e
r 2 2 w
h 5 0 s
r 6 1 e
23 10

7 8
4
h 4 2 w
f 4 2 n
r 5 0 s
f 1 1 e
25 5

10 8
5
f 0 4 n
h 1 0 n
r 2 2 n
r 4 3 w
h 7 4 n
40 20

8 8
4
h 0 1 n
r 3 3 n
r 1 4 e
f 0 3 e
23 10

6 6
4
f 1 2 e
h 3 3 e
r 3 3 s
r 4 2 n
23 10

7 7
3
f 2 2 n
f 2 3 e
r 4 2 n
23 10

5 8
4
h 0 1 n
r 3 3 n
r 1 4 e
f 0 3 e
23 10

12 6
4
h 0 1 n
r 3 3 n
r 1 4 e
f 0 3 e
23 6

12 6
4
h 0 1 e
f 3 3 n
r 1 4 s
r 0 3 e
23 6

12 8
4
r 2 1 e
h 3 3 n
h 1 4 s
r 1 3 e
23 6

12 10
4
r 2 1 e
f 3 3 s
f 1 4 e
r 1 3 e
23 6

12 12
4
h 2 1 e
h 3 3 n
h 1 4 s
h 1 3 e
26 10

12 14
4
h 2 1 e
f 3 3 e
f 1 4 s
r 1 3 s
26 10
