20

10 10
6
h 0 0 s
h 1 0 s
t 2 1 w
t 5 1 w
h 2 5 s
h 3 5 s
8 2

8 8
4
h 3 0 s
h 4 0 s
h 5 1 s
h 7 4 s
4 1

10 6
4
r 5 5 s
f 4 4 n
r 6 5 w
t 6 0 w
3 1

10 4
8
h 0 0 s
h 1 0 s
t 2 1 w
t 5 1 w
h 2 3 s
h 3 3 s
r 6 1 w
t 6 0 w
3 1

10 11
6
t 2 1 w
t 5 1 w
h 2 3 s
h 3 3 s
r 6 1 w
t 6 0 w
4 2

10 10
9
t 2 1 w
t 5 1 w
h 2 3 e
h 3 3 e
r 6 1 n
t 6 0 n
r 7 4 s
f 1 6 w
t 1 9 w
2 1

9 10
2
r 1 7 n
f 1 6 n
2 1

2 5
4
h 1 3 n
h 1 0 n
h 1 1 n
h 1 2 n
2 1

9 9
10
t 2 1 w
t 5 1 w
h 2 3 e
h 3 3 e
r 6 1 n
t 6 0 n
r 7 4 s
f 1 6 w
t 1 8 w
r 0 0 s
8 2

7 8
3
r 6 1 n
t 6 0 n
r 3 4 s
8 1

7 8
9
t 2 0 w
t 5 1 w
h 2 3 e
h 3 3 e
r 6 1 n
t 6 0 n
r 5 4 s
f 1 6 w
t 1 3 w
4 2

8 10
2
t 1 5 n
h 1 6 w
5 1

7 11
5
t 2 0 w
t 5 1 w
t 2 3 e
t 3 3 e
t 6 1 n
5 1

10 10
5
h 2 0 w
h 5 1 w
h 2 3 e
h 3 3 e
h 6 1 n
6 2

5 5
2
h 0 4 n
f 0 2 n
6 2

8 7
8
h 0 3 e
f 0 4 n
t 0 6 w
f 0 2 n
f 0 5 n
f 1 3 n
f 1 4 n
t 1 6 w
4 2

5 5
6
f 1 2 w
t 2 0 w
h 0 3 n
h 1 0 n
h 2 0 n
r 1 1 w
5 1

10 10
8
r 2 1 w
r 5 1 w
r 2 3 e
r 3 3 e
r 6 1 n
r 6 0 n
r 7 4 s
r 1 6 w
4 2

9 9
10
h 2 1 w
h 5 1 w
h 2 3 e
h 3 3 e
h 6 1 n
h 6 0 n
h 7 4 s
h 1 6 w
h 1 8 w
h 0 0 s
2 1

11 11
10
h 2 1 w
h 5 1 w
h 2 3 e
r 3 3 e
r 6 1 n
r 6 0 n
r 7 4 s
f 1 6 w
f 1 8 w
f 0 0 s
4 2
